osfactor = 2
centerFreq = 123216006
fov.read = 349
fov.phase = 349
fov.slice = 360
kdata.dwellTime = 4000
kdata.dims.nCol = 512
kdata.dims.nLin = 800
kdata.dims.nPar = 37
kdata.dims.nCha = 5
scanTime = 377
TE = [5340 15000]
TR = 12700
lPartitions = 46
nImagesPerSlab = 80
offset.dSag = 0
offset.dCor = 1.084337349
offset.dTra = 0
normalVector.dSag = 1
normalVector.dCor = 0
normalVector.dTra = 0
globalTablePos.dSag = 0
globalTablePos.dCor = 0
globalTablePos.dTra = 51
ImageSize.nRow = 256
ImageSize.nCol = 256
ImageSize.nSlice = 80
navigator.dwellTime = 2500